; Engine configuration file.
; It's best edited using the editor UI and not directly,
; since the parameters that go here are not all obvious.
;
; Format:
;   [section] ; section goes between []
;   param=value ; assign values to parameters

config_version=4

[application]

config/name="Little Death"
run/main_scene="res://Scenes/MainMenu.tscn"

[autoload]

global="*res://Scripts/global.gd"

[display]

window/size/resizable=false

[global]

layer=false
layer_name=false

[input]

ui_accept={
"deadzone": 0.5,
"events": [ Object(InputEventKey,"resource_local_to_scene":false,"resource_name":"","device":0,"alt":false,"shift":false,"control":false,"meta":false,"command":false,"pressed":false,"scancode":16777221,"unicode":0,"echo":false,"script":null)
, Object(InputEventKey,"resource_local_to_scene":false,"resource_name":"","device":0,"alt":false,"shift":false,"control":false,"meta":false,"command":false,"pressed":false,"scancode":16777222,"unicode":0,"echo":false,"script":null)
, Object(InputEventKey,"resource_local_to_scene":false,"resource_name":"","device":0,"alt":false,"shift":false,"control":false,"meta":false,"command":false,"pressed":false,"scancode":32,"unicode":0,"echo":false,"script":null)
, Object(InputEventJoypadButton,"resource_local_to_scene":false,"resource_name":"","device":0,"button_index":0,"pressure":0.0,"pressed":false,"script":null)
 ]
}

[layer_names]

2d_render/layer_1="player"
2d_physics/layer_1="player"
2d_render/layer_2="human"
2d_physics/layer_2="human"
2d_render/layer_3="interior"
2d_physics/layer_3="interior"
2d_render/layer_4="building"
2d_physics/layer_4="building"

[physics]

common/enable_pause_aware_picking=true
